…
    #> # A tibble: 4,904 x 3
    #>    date       decompose value
    #>    <date>     <fct>     <dbl>
    #>  1 1995-05-09 var.load   43.3
    #>  2 1995-05-09 var.trend  NA  
    #>  3 1995-05-09 var.seas  -12.8
    #>  4 1995-05-09 var.err    NA  
    #>  5 1995-05-16 var.load   44.3
    #>  6 1995-05-16 var.trend  NA  
    #>  7 1995-05-16 var.seas  -13.1
    #>  8 1995-05-16 var.err    NA  
    #>  9 1995-05-23 var.load   45.3
    #> 10 1995-05-23 var.trend  NA  
    #> # … with 4,894 more rows
